Project Motoparts - Part 2 - R & TrelliscopeJS
…
Before we design and render our plots, let’s load all the necessary R packages that will be used in our analysis.

library(readxl)
library(tidyverse)
library(ggh4x)
library(trelliscopejs)

Now that we have our libraries loaded, let’s read in our csv from the previous exercise and check the output.

salesdata <- read_csv("revenue_by_product_line.csv")

salesdata

# A tibble: 48 × 4
   product_line      month  warehouse net_revenue
   <chr>             <chr>  <chr>           <dbl>
 1 Braking system    August Central         3039.
 2 Braking system    August West            2501.
 3 Braking system    August North           1771.
 4 Braking system    July   Central         3779.
 5 Braking system    July   West            3061.
 6 Braking system    July   North           2594.
 7 Braking system    June   Central         3685.
 8 Braking system    June   North           1488.
 9 Braking system    June   West            1213.
10 Electrical system August North           4721.
# ℹ 38 more rows
…
Factoring Months & Product Lines

Our object salesdata is currently storing product_line and month as a character type field. This will be a problem when we render our plots, as R will have no understanding on how to logically order these dimensions in a way that makes sense to the human eye.

Let’s manually factor our month column to establish the correct month hierarchy.

Then lets use the Forcats package (within the Tidyverse library) to factor our product_line column based on aggregated net_revenue.

salesdata$month <- factor(salesdata$month, levels = c("June", "July", "August"))
salesdata$product_line <- fct_reorder(salesdata$product_line, salesdata$net_revenue, .desc = TRUE)

salesdata

# A tibble: 48 × 4
   product_line      month  warehouse net_revenue
   <fct>             <fct>  <chr>           <dbl>
 1 Braking system    August Central         3039.
 2 Braking system    August West            2501.
 3 Braking system    August North           1771.
 4 Braking system    July   Central         3779.
 5 Braking system    July   West            3061.
 6 Braking system    July   North           2594.
 7 Braking system    June   Central         3685.
 8 Braking system    June   North           1488.
 9 Braking system    June   West            1213.
10 Electrical system August North           4721.
# ℹ 38 more rows
…
